<svg width="20" height="20" viewBox="0 0 20 20" fill="none" xmlns="http://www.w3.org/2000/svg">
<path d="M6.40039 8.21655H13.5993V11.7646H6.40039V8.21655Z" fill="#1864CE"/>
<path d="M18.9545 7.25159H18.4551V12.4838H18.9545C19.5317 12.4831 19.9996 12.0154 20.0001 11.4381V8.297C19.9994 7.7198 19.5315 7.25212 18.9545 7.25159Z" fill="#1864CE"/>
<path d="M16.4961 5.03906H14.5127V14.942H16.4961C17.0733 14.9413 17.5412 14.4736 17.5417 13.8964V6.08465C17.5412 5.50746 17.0733 5.03978 16.4961 5.03906Z" fill="#1864CE"/>
<path d="M2.45801 6.08465V13.8964C2.45854 14.4736 2.9264 14.9415 3.5036 14.942H5.48705V5.03906H3.5036C2.9264 5.03978 2.45854 5.50746 2.45801 6.08465Z" fill="#1864CE"/>
<path d="M0 8.29718V11.4381C0.000535105 12.0154 0.468393 12.4831 1.04559 12.4838H1.54502V7.25159H1.04559C0.468393 7.25212 0.00071347 7.71998 0 8.29718Z" fill="#1864CE"/>
</svg>
